\boolfalse {citerequest}\boolfalse {citetracker}\boolfalse {pagetracker}\boolfalse {backtracker}\relax 
\babel@toc {ngerman}{}
\defcounter {refsection}{0}\relax 
\beamer@sectionintoc {1}{Einleitender Teil zur Numerik}{4}{0}{1}
\defcounter {refsection}{0}\relax 
\beamer@subsectionintoc {1}{1}{Numerisches Lösen von Problemen}{4}{0}{1}
\defcounter {refsection}{0}\relax 
\beamer@subsectionintoc {1}{2}{Schwierigkeiten beim numerischen Lösen von linearen Gleichungssystemen}{5}{0}{1}
\defcounter {refsection}{0}\relax 
\beamer@subsectionintoc {1}{3}{Frage nach Lösungsstrategien für Problematik schlecht konditionierter Matrizen}{6}{0}{1}
\defcounter {refsection}{0}\relax 
\beamer@sectionintoc {2}{Grundlagen zur weiteren Arbeit}{8}{0}{2}
\defcounter {refsection}{0}\relax 
\beamer@subsectionintoc {2}{1}{Pseudo-Inverse}{8}{0}{2}
\defcounter {refsection}{0}\relax 
\beamer@subsectionintoc {2}{2}{Singulärwerte}{8}{0}{2}
\defcounter {refsection}{0}\relax 
\beamer@subsubsectionintoc {2}{2}{1}{Definition von Singulärwerten}{8}{0}{2}
\defcounter {refsection}{0}\relax 
\beamer@subsubsectionintoc {2}{2}{2}{Singulärwertzerlegung}{8}{0}{2}
\defcounter {refsection}{0}\relax 
\beamer@subsubsectionintoc {2}{2}{3}{Lösungsansatz mit Singulärwerten}{11}{0}{2}
\defcounter {refsection}{0}\relax 
\beamer@sectionintoc {3}{Vergleich zweier Verfahren}{12}{0}{3}
\defcounter {refsection}{0}\relax 
\beamer@subsectionintoc {3}{1}{Truncated Singular Value Decomposition}{12}{0}{3}
\defcounter {refsection}{0}\relax 
\beamer@subsectionintoc {3}{2}{Tikhonov-Regularisierung}{15}{0}{3}
\defcounter {refsection}{0}\relax 
\beamer@subsectionintoc {3}{3}{Programm}{15}{0}{3}
\defcounter {refsection}{0}\relax 
\beamer@sectionintoc {4}{Ergebnisse}{18}{0}{4}
\defcounter {refsection}{0}\relax 
\beamer@sectionintoc {5}{Weitere Schritte}{20}{0}{5}
