\relax 
\providecommand\hyper@newdestlabel[2]{}
\providecommand\HyperFirstAtBeginDocument{\AtBeginDocument}
\HyperFirstAtBeginDocument{\ifx\hyper@anchor\@undefined
\global\let\oldcontentsline\contentsline
\gdef\contentsline#1#2#3#4{\oldcontentsline{#1}{#2}{#3}}
\global\let\oldnewlabel\newlabel
\gdef\newlabel#1#2{\newlabelxx{#1}#2}
\gdef\newlabelxx#1#2#3#4#5#6{\oldnewlabel{#1}{{#2}{#3}}}
\AtEndDocument{\ifx\hyper@anchor\@undefined
\let\contentsline\oldcontentsline
\let\newlabel\oldnewlabel
\fi}
\fi}
\global\let\hyper@last\relax 
\gdef\HyperFirstAtBeginDocument#1{#1}
\providecommand\HyField@AuxAddToFields[1]{}
\providecommand\HyField@AuxAddToCoFields[2]{}
\catcode `"\active 
\abx@aux@refcontext{anyt/global//global/global}
\@input{../common/contents/titel.aux}
\@writefile{toc}{\boolfalse {citerequest}\boolfalse {citetracker}\boolfalse {pagetracker}\boolfalse {backtracker}\relax }
\@writefile{lof}{\boolfalse {citerequest}\boolfalse {citetracker}\boolfalse {pagetracker}\boolfalse {backtracker}\relax }
\@writefile{lot}{\boolfalse {citerequest}\boolfalse {citetracker}\boolfalse {pagetracker}\boolfalse {backtracker}\relax }
\babel@aux{ngerman}{}
\@input{../common/contents/eidesstattliche_erklaerung.aux}
\@input{../common/contents/kurz_beschreibung.aux}
\@input{../common/contents/vorwort.aux}
\@input{../common/contents/inhalts_verzeichnis.aux}
\@input{../common/contents/einleitung.aux}
\abx@aux@cite{num-1}
\abx@aux@segm{0}{0}{num-1}
\@input{../common/contents/grundlagen.aux}
\abx@aux@segm{0}{0}{num-1}
\abx@aux@cite{wiki-singulaerwert_zerlegung}
\abx@aux@segm{0}{0}{wiki-singulaerwert_zerlegung}
\abx@aux@segm{0}{0}{num-1}
\@input{../common/contents/arbeit.aux}
\abx@aux@segm{0}{0}{num-1}
\abx@aux@segm{0}{0}{num-1}
\@input{../common/contents/ergebnisse.aux}
\@input{../common/contents/ausblick.aux}
\abx@aux@segm{0}{0}{num-1}
\abx@aux@cite{article-ki}
\abx@aux@segm{0}{0}{article-ki}
\@writefile{nav}{\headcommand {\gdef \insertmainframenumber {2}}}
\@input{../common/contents/sonstiges.aux}
\@input{../common/contents/literatur.aux}
\abx@aux@segm{0}{0}{num-1}
\@writefile{nav}{\defcounter {refsection}{0}\relax }\@writefile{nav}{\headcommand {\partentry {Anhang}{1}}}
\@writefile{nav}{\defcounter {refsection}{0}\relax }\@writefile{nav}{\headcommand {\beamer@partpages {1}{20}}}
\@writefile{nav}{\defcounter {refsection}{0}\relax }\@writefile{nav}{\headcommand {\beamer@sectionpages {20}{20}}}
\@writefile{nav}{\defcounter {refsection}{0}\relax }\@writefile{nav}{\headcommand {\beamer@subsectionpages {20}{20}}}
\@writefile{nav}{\defcounter {refsection}{0}\relax }\@writefile{nav}{\headcommand {\beamer@appendixpages {21}}}
\@input{../common/contents/abbildungs_verzeichnis.aux}
\@writefile{nav}{\headcommand {\beamer@partpages {21}{21}}}
\@writefile{nav}{\headcommand {\beamer@subsectionpages {21}{21}}}
\@writefile{nav}{\headcommand {\beamer@sectionpages {21}{21}}}
\@writefile{nav}{\headcommand {\beamer@documentpages {21}}}
\@writefile{nav}{\headcommand {\gdef \inserttotalframenumber {2}}}
\abx@aux@refcontextdefaultsdone
\abx@aux@defaultrefcontext{0}{article-ki}{anyt/global//global/global}
\abx@aux@defaultrefcontext{0}{num-1}{anyt/global//global/global}
\abx@aux@defaultrefcontext{0}{wiki-singulaerwert_zerlegung}{anyt/global//global/global}
