\relax 
\providecommand*\new@tpo@label[2]{}
\catcode `"\active 
\abx@aux@refcontext{anyt/global//global/global}
\@input{../common/contents/titel.aux}
\@writefile{toc}{\boolfalse {citerequest}\boolfalse {citetracker}\boolfalse {pagetracker}\boolfalse {backtracker}\relax }
\@writefile{lof}{\boolfalse {citerequest}\boolfalse {citetracker}\boolfalse {pagetracker}\boolfalse {backtracker}\relax }
\@writefile{lot}{\boolfalse {citerequest}\boolfalse {citetracker}\boolfalse {pagetracker}\boolfalse {backtracker}\relax }
\babel@aux{ngerman}{}
\@input{../common/contents/eidesstattliche_erklaerung.aux}
\@input{../common/contents/kurz_beschreibung.aux}
\@input{../common/contents/vorwort.aux}
\@input{../common/contents/inhalts_verzeichnis.aux}
\@input{../common/contents/einleitung.aux}
\abx@aux@cite{num-1}
\abx@aux@segm{0}{0}{num-1}
\@input{../common/contents/grundlagen.aux}
\abx@aux@segm{0}{0}{num-1}
\abx@aux@cite{wiki-singulaerwert_zerlegung}
\abx@aux@segm{0}{0}{wiki-singulaerwert_zerlegung}
\abx@aux@segm{0}{0}{num-1}
\@input{../common/contents/arbeit.aux}
\abx@aux@segm{0}{0}{num-1}
\abx@aux@segm{0}{0}{num-1}
\@input{../common/contents/ergebnisse.aux}
\@input{../common/contents/ausblick.aux}
\abx@aux@segm{0}{0}{num-1}
\abx@aux@cite{article-ki}
\abx@aux@segm{0}{0}{article-ki}
\@input{../common/contents/sonstiges.aux}
\@input{../common/contents/literatur.aux}
\abx@aux@segm{0}{0}{num-1}
\@input{../common/contents/abbildungs_verzeichnis.aux}
\abx@aux@refcontextdefaultsdone
\abx@aux@defaultrefcontext{0}{article-ki}{anyt/global//global/global}
\abx@aux@defaultrefcontext{0}{num-1}{anyt/global//global/global}
\abx@aux@defaultrefcontext{0}{wiki-singulaerwert_zerlegung}{anyt/global//global/global}
\global\csname @altsecnumformattrue\endcsname
\global\@namedef{scr@dte@chapter@lastmaxnumwidth}{17.26793pt}
\global\@namedef{scr@dte@section@lastmaxnumwidth}{23.08795pt}
\global\@namedef{scr@dte@subsection@lastmaxnumwidth}{32.23196pt}
