\relax 
\providecommand*\new@tpo@label[2]{}
\catcode `"\active 
\abx@aux@refcontext{anyt/global//global/global}
\@input{../common/contents/titel.aux}
\@writefile{toc}{\boolfalse {citerequest}\boolfalse {citetracker}\boolfalse {pagetracker}\boolfalse {backtracker}\relax }
\@writefile{lof}{\boolfalse {citerequest}\boolfalse {citetracker}\boolfalse {pagetracker}\boolfalse {backtracker}\relax }
\@writefile{lot}{\boolfalse {citerequest}\boolfalse {citetracker}\boolfalse {pagetracker}\boolfalse {backtracker}\relax }
\babel@aux{ngerman}{}
\@input{../common/contents/eidesstattliche_erklaerung.aux}
\@input{../common/contents/kurz_beschreibung.aux}
\@input{../common/contents/vorwort.aux}
\@input{../common/contents/inhalts_verzeichnis.aux}
\@input{../common/contents/einleitung.aux}
\abx@aux@cite{num-1}
\abx@aux@segm{0}{0}{num-1}
\@input{../common/contents/grundlagen.aux}
\abx@aux@segm{0}{0}{num-1}
\abx@aux@cite{wiki-singulaerwert_zerlegung}
\abx@aux@segm{0}{0}{wiki-singulaerwert_zerlegung}
\abx@aux@segm{0}{0}{num-1}
\@input{../common/contents/arbeit.aux}
\abx@aux@segm{0}{0}{num-1}
\abx@aux@segm{0}{0}{num-1}
\@writefile{toc}{\defcounter {refsection}{0}\relax }\@writefile{toc}{\contentsline {subsection}{\numberline {3.3}Programm}{8}}
\newlabel{sec:programm}{{3.3}{8}}
\newlabel{sec:programm@cref}{{[subsection][3][3]3.3}{[1][8][]8}}
\@writefile{lof}{\defcounter {refsection}{0}\relax }\@writefile{lof}{\contentsline {figure}{\numberline {4}{\ignorespaces Code-Ausschnitt}}{8}}
\@writefile{lol}{\defcounter {refsection}{0}\relax }\@writefile{lol}{\contentsline {lstlisting}{../../src/app.py}{8}}
\newlabel{fig:code}{{4}{8}}
\newlabel{fig:code@cref}{{[figure][4][]4}{[1][8][]8}}
\@input{../common/contents/ergebnisse.aux}
\@input{../common/contents/ausblick.aux}
\abx@aux@segm{0}{0}{num-1}
\abx@aux@cite{article-ki}
\abx@aux@segm{0}{0}{article-ki}
\@input{../common/contents/sonstiges.aux}
\@input{../common/contents/literatur.aux}
\abx@aux@segm{0}{0}{num-1}
\@input{../common/contents/abbildungs_verzeichnis.aux}
\abx@aux@refcontextdefaultsdone
\abx@aux@defaultrefcontext{0}{article-ki}{anyt/global//global/global}
\abx@aux@defaultrefcontext{0}{num-1}{anyt/global//global/global}
\abx@aux@defaultrefcontext{0}{wiki-singulaerwert_zerlegung}{anyt/global//global/global}
\global\@namedef{scr@dte@section@lastmaxnumwidth}{11.39993pt}
\global\@namedef{scr@dte@subsection@lastmaxnumwidth}{19.82394pt}
\global\@namedef{scr@dte@subsubsection@lastmaxnumwidth}{28.96796pt}
