[0] Config.pm:302> INFO - This is Biber 2.10
[0] Config.pm:305> INFO - Logfile is 'p-article.blg'
[34] biber-MSWIN32:313> INFO - === 
[66] Biber.pm:371> INFO - Reading 'p-article.bcf'
[184] Biber.pm:857> INFO - Found 3 citekeys in bib section 0
[220] Biber.pm:3976> INFO - Processing section 0
[256] Biber.pm:4136> INFO - Looking for bibtex format file '../common/thesis.bib' for section 0
[264] bibtex.pm:1490> INFO - LaTeX decoding ...
[280] bibtex.pm:1306> INFO - Found BibTeX data source '../common/thesis.bib'
[308] Utils.pm:193> WARN - Overwriting field 'month' with month value from field 'date' for entry 'article-ki'
[350] UCollate.pm:68> INFO - Overriding locale 'de-DE' defaults 'normalization = NFD' with 'normalization = prenormalized'
[350] UCollate.pm:68> INFO - Overriding locale 'de-DE' defaults 'variable = shifted' with 'variable = non-ignorable'
[350] Biber.pm:3804> INFO - Sorting list 'anyt/global//global/global' of type 'entry' with template 'anyt' and locale 'de-DE'
[350] Biber.pm:3810> INFO - No sort tailoring available for locale 'de-DE'
[372] bbl.pm:617> INFO - Writing 'p-article.bbl' with encoding 'UTF-8'
[375] bbl.pm:720> INFO - Output to p-article.bbl
[377] Biber.pm:110> INFO - WARNINGS: 1
